10a_WeightDiss_Analysen
…
data_pp <- filter(data_pp, rt_ms < 3000)

# identify all rt-Values > 3SDs
data_pp <- data_pp %>%
  group_by(id, real_weight, virtual_weight) %>%
  mutate(
    rt_ms_mean = mean(rt_ms),
    rt_ms_sd = sd(rt_ms),
    z = ((rt_ms - rt_ms_mean) / rt_ms_sd)
  ) %>%
  ungroup()

filter(data_pp, z <= -3 | z >= 3)

# A tibble: 90 × 20
   id    cond  block trial real_…¹ virtu…² rt_ms track…³ targe…⁴ targe…⁵ targe…⁶
   <fct> <chr> <dbl> <dbl> <fct>   <fct>   <dbl>   <dbl>   <dbl>   <dbl>   <dbl>
 1 1     HC-PV     2    13 HC      PV      2277.    2.16   1.56    3.32     3.86
 2 1     PC-PV     3    35 PC      PV      2577.    2.70   1.56    2.04     4.23
 3 1     PC-HV     4    61 PC      HV      2131.    2.63   2.19    0.482    3.76
 4 2     PC-PV     4    21 PC      PV      2765.    3.99   1.95    2.27     4.19
 5 3     HC-HV     4    41 HC      HV      2700.    3.24   2.20    3.23     3.95
 6 4     HC-HV     2    16 HC      HV      2599.    2.65  -1.03    1.28     4.61
 7 4     PC-HV     3    29 PC      HV      2577.    2.96   0.496   3.21     4.47
 8 4     PC-HV     3    42 PC      HV      2488.    2.23  -2.93    2.77     3.46
 9 4     HC-PV     4    72 HC      PV      2476.    2.76  -2.44    2.80     3.91
10 5     HC-HV     1    67 HC      HV      2788.    3.03   2.35    0.200    3.82
# … with 80 more rows, 9 more variables: gc_distance_last_target <dbl>,
#   camera_x <dbl>, camera_y <dbl>, camera_z <dbl>,
#   distance_camera_target <dbl>, n_trials <int>, rt_ms_mean <dbl>,
#   rt_ms_sd <dbl>, z <dbl>, and abbreviated variable names ¹​real_weight,
#   ²​virtual_weight, ³​tracked_path, ⁴​target_x, ⁵​target_y, ⁶​target_z
…
